^E:\AC\CWM\TRUE_TEST\TEST\CLASSLIBRARY3\DEBUG\.NETFRAMEWORK,VERSION=V4.5.ASSEMBLYATTRIBUTES.OBJ|E:\AC\CWM\TRUE_TEST\TEST\CLASSLIBRARY3\DEBUG\APP.RES|E:\AC\CWM\TRUE_TEST\TEST\CLASSLIBRARY3\DEBUG\ASSEMBLYINFO.OBJ|E:\AC\CWM\TRUE_TEST\TEST\CLASSLIBRARY3\DEBUG\CLASSLIBRARY3.OBJ|E:\AC\CWM\TRUE_TEST\TEST\CLASSLIBRARY3\DEBUG\STDAFX.OBJ|E:\AC\CWM\TRUE_TEST\TEST\CONSOLEAPPLICATION2\BIN\DEBUG\DLL.LIB
E:\AC\CWM\TRUE_TEST\TEST\CLASSLIBRARY3\DEBUG\APP.RES
E:\AC\CWM\TRUE_TEST\TEST\CLASSLIBRARY3\DEBUG\ASSEMBLYINFO.OBJ
E:\AC\CWM\TRUE_TEST\TEST\CLASSLIBRARY3\DEBUG\CLASSLIBRARY3.OBJ
E:\AC\CWM\TRUE_TEST\TEST\CLASSLIBRARY3\DEBUG\STDAFX.OBJ
E:\AC\CWM\TRUE_TEST\TEST\CLASSLIBRARY3\DEBUG\.NETFRAMEWORK,VERSION=V4.5.ASSEMBLYATTRIBUTES.OBJ
E:\AC\CWM\TRUE_TEST\TEST\CONSOLEAPPLICATION2\BIN\DEBUG\DLL.LIB
C:\WINDOWS\GLOBALIZATION\SORTING\SORTDEFAULT.NLS
C:\PROGRAM FILES (X86)\MICROSOFT VISUAL STUDIO 11.0\VC\BIN\LINK.EXE
C:\WINDOWS\SYSTEM32\RSAENH.DLL
C:\WINDOWS\SYSTEM32\TZRES.DLL
C:\WINDOWS\MICROSOFT.NET\FRAMEWORK\V2.0.50727\MSCORWKS.DLL
C:\WINDOWS\MICROSOFT.NET\FRAMEWORK\V4.0.30319\CLR.DLL
C:\PROGRAM FILES (X86)\MICROSOFT VISUAL STUDIO 11.0\VC\BIN\LINK.EXE.CONFIG
C:\PROGRAM FILES (X86)\MICROSOFT VISUAL STUDIO 11.0\VC\LIB\MSVCRTD.LIB
C:\PROGRAM FILES (X86)\MICROSOFT VISUAL STUDIO 11.0\VC\LIB\OLDNAMES.LIB
C:\PROGRAM FILES (X86)\MICROSOFT VISUAL STUDIO 11.0\VC\LIB\MSVCMRTD.LIB
C:\PROGRAM FILES (X86)\WINDOWS KITS\8.0\LIB\WIN8\UM\X86\MSCOREE.LIB
C:\PROGRAM FILES (X86)\WINDOWS KITS\8.0\LIB\WIN8\UM\X86\KERNEL32.LIB
C:\PROGRAM FILES (X86)\WINDOWS KITS\8.0\LIB\WIN8\UM\X86\UUID.LIB
C:\PROGRAM FILES (X86)\WINDOWS KITS\8.0\BIN\X86\RC.EXE
C:\PROGRAM FILES (X86)\MICROSOFT VISUAL STUDIO 11.0\VC\BIN\CVTRES.EXE
