^C:\USERS\MIN\DOCUMENTS\VISUAL STUDIO 2010\PROJECTS\TEST\DLL\RELEASE\DLL.DLL.INTERMEDIATE.MANIFEST
C:\WINDOWS\MICROSOFT.NET\FRAMEWORK\V2.0.50727\MSCORWKS.DLL
C:\WINDOWS\MICROSOFT.NET\FRAMEWORK\V4.0.30319\CLR.DLL
C:\PROGRAM FILES (X86)\MICROSOFT SDKS\WINDOWS\V7.0A\BIN\MT.EXE.CONFIG
C:\USERS\MIN\DOCUMENTS\VISUAL STUDIO 2010\PROJECTS\TEST\RELEASE\DLL.DLL
