^E:\ac\cwm\true_test\test\dll\dll.vcxproj
E:\ac\cwm\true_test\test\ConsoleApplication2\bin\Debug\dll.lib
E:\ac\cwm\true_test\test\ConsoleApplication2\bin\Debug\dll.lib
E:\ac\cwm\true_test\test\ConsoleApplication2\bin\Debug\dll.exp
E:\ac\cwm\true_test\test\ConsoleApplication2\bin\Debug\dll.exp
^E:\ac\cwm\true_test\test\dll\dll.vcxproj
E:\ac\cwm\true_test\test\ConsoleApplication2\bin\Debug\dll.lib
E:\ac\cwm\true_test\test\ConsoleApplication2\bin\Debug\dll.lib
E:\ac\cwm\true_test\test\ConsoleApplication2\bin\Debug\dll.exp
E:\ac\cwm\true_test\test\ConsoleApplication2\bin\Debug\dll.exp
